…
Save 5000 bootstrap samples.

``` r
n_boot = 5000

boot_straps = 
  tibble(strap_number = 1:n_boot) |>
  mutate(
    strap_sample = map(strap_number, \(i) boot_func(weather_clean))
  )

boot_straps
```

    ## # A tibble: 5,000 × 2
    ##    strap_number strap_sample        
    ##           <int> <list>              
    ##  1            1 <tibble [2,171 × 3]>
    ##  2            2 <tibble [2,171 × 3]>
    ##  3            3 <tibble [2,171 × 3]>
    ##  4            4 <tibble [2,171 × 3]>
    ##  5            5 <tibble [2,171 × 3]>
    ##  6            6 <tibble [2,171 × 3]>
    ##  7            7 <tibble [2,171 × 3]>
    ##  8            8 <tibble [2,171 × 3]>
    ##  9            9 <tibble [2,171 × 3]>
    ## 10           10 <tibble [2,171 × 3]>
    ## # ℹ 4,990 more rows
…
bootstrap_results
```

    ## # A tibble: 5,000 × 3
    ##    strap_number  r_sq beta_prod
    ##           <int> <dbl>     <dbl>
    ##  1            1 0.941  -0.00510
    ##  2            2 0.937  -0.00452
    ##  3            3 0.945  -0.00635
    ##  4            4 0.942  -0.00621
    ##  5            5 0.943  -0.00591
    ##  6            6 0.942  -0.00650
    ##  7            7 0.939  -0.00597
    ##  8            8 0.939  -0.00456
    ##  9            9 0.938  -0.00632
    ## 10           10 0.935  -0.00507
    ## # ℹ 4,990 more rows
…
